{
  "Toggler": [
    {
      "idx": 0,
      "u": 1,
      "name": null,
      "model": "Line",
      "dev": 6,
      "t": 2
    }
  ],
  "Bus": [
    {
      "idx": 0,
      "u": 1,
      "name": "Bus 1",
      "Vn": 230,
      "vmax": 1.1,
      "vmin": 0.9,
      "v0": 1,
      "a0": 0,
      "xcoord": 0,
      "ycoord": 0,
      "area": 1,
      "zone": null,
      "owner": null
    },
    {
      "idx": 1,
      "u": 1,
      "name": "Bus 2",
      "Vn": 230,
      "vmax": 1.1,
      "vmin": 0.9,
      "v0": 1,
      "a0": 0,
      "xcoord": 0,
      "ycoord": 0,
      "area": 1,
      "zone": null,
      "owner": null
    },
    {
      "idx": 2,
      "u": 1,
      "name": "Bus 3",
      "Vn": 230,
      "vmax": 1.1,
      "vmin": 0.9,
      "v0": 1,
      "a0": 0,
      "xcoord": 0,
      "ycoord": 0,
      "area": 2,
      "zone": null,
      "owner": null
    },
    {
      "idx": 3,
      "u": 1,
      "name": "Bus 4",
      "Vn": 230,
      "vmax": 1.1,
      "vmin": 0.9,
      "v0": 1,
      "a0": 0,
      "xcoord": 0,
      "ycoord": 0,
      "area": 2,
      "zone": null,
      "owner": null
    },
    {
      "idx": 4,
      "u": 1,
      "name": "Bus 5",
      "Vn": 230,
      "vmax": 1.1,
      "vmin": 0.9,
      "v0": 1,
      "a0": 0,
      "xcoord": 0,
      "ycoord": 0,
      "area": 3,
      "zone": null,
      "owner": null
    }
  ],
  "PQ": [
    {
      "idx": 0,
      "u": 1,
      "name": "PQ 1",
      "bus": 1,
      "Vn": 230,
      "p0": 3,
      "q0": 0.9861,
      "vmax": 1.1,
      "vmin": 0.9,
      "owner": null
    },
    {
      "idx": 1,
      "u": 1,
      "name": "PQ 2",
      "bus": 2,
      "Vn": 230,
      "p0": 3,
      "q0": 0.9861,
      "vmax": 1.1,
      "vmin": 0.9,
      "owner": null
    },
    {
      "idx": 2,
      "u": 1,
      "name": "PQ 3",
      "bus": 3,
      "Vn": 230,
      "p0": 4,
      "q0": 1.3147,
      "vmax": 1.1,
      "vmin": 0.9,
      "owner": null
    }
  ],
  "PV": [
    {
      "idx": 0,
      "u": 1,
      "name": "PV 1",
      "Sn": 100,
      "Vn": 230,
      "bus": 0,
      "busr": null,
      "p0": 2.1,
      "q0": 0,
      "pmax": 999,
      "pmin": -1,
      "qmax": 999,
      "qmin": -999,
      "v0": 1,
      "vmax": 1.4,
      "vmin": 0.6,
      "ra": 0.01,
      "xs": 0.3
    },
    {
      "idx": 2,
      "u": 1,
      "name": "PV 3",
      "Sn": 100,
      "Vn": 230,
      "bus": 2,
      "busr": null,
      "p0": 3.2349,
      "q0": 0,
      "pmax": 999,
      "pmin": -1,
      "qmax": 999,
      "qmin": -999,
      "v0": 1,
      "vmax": 1.4,
      "vmin": 0.6,
      "ra": 0.01,
      "xs": 0.3
    },
    {
      "idx": 4,
      "u": 1,
      "name": "PV 5",
      "Sn": 100,
      "Vn": 230,
      "bus": 4,
      "busr": null,
      "p0": 4.6651,
      "q0": 0,
      "pmax": 999,
      "pmin": -1,
      "qmax": 999,
      "qmin": -999,
      "v0": 1,
      "vmax": 1.4,
      "vmin": 0.6,
      "ra": 0.01,
      "xs": 0.3
    }
  ],
  "Slack": [
    {
      "idx": 3,
      "u": 1,
      "name": "Slack 1",
      "Sn": 100,
      "Vn": 230,
      "bus": 3,
      "busr": null,
      "p0": 0,
      "q0": 0,
      "pmax": 999,
      "pmin": -1,
      "qmax": 999,
      "qmin": -999,
      "v0": 1,
      "vmax": 1.4,
      "vmin": 0.6,
      "ra": 0.01,
      "xs": 0.3,
      "a0": 0
    }
  ],
  "Line": [
    {
      "idx": 0,
      "u": 1,
      "name": "Line 1-2",
      "bus1": 0,
      "bus2": 1,
      "Sn": 100,
      "fn": 60,
      "Vn1": 230,
      "Vn2": 230,
      "r": 0.00281,
      "x": 0.0281,
      "b": 0.00712,
      "g": 0,
      "b1": 0,
      "g1": 0,
      "b2": 0,
      "g2": 0,
      "trans": 0,
      "tap": 1,
      "phi": 0,
      "owner": null,
      "xcoord": null,
      "ycoord": null
    },
    {
      "idx": 1,
      "u": 1,
      "name": "Line 1-4",
      "bus1": 0,
      "bus2": 3,
      "Sn": 100,
      "fn": 60,
      "Vn1": 230,
      "Vn2": 230,
      "r": 0.00304,
      "x": 0.0304,
      "b": 0.00658,
      "g": 0,
      "b1": 0,
      "g1": 0,
      "b2": 0,
      "g2": 0,
      "trans": 0,
      "tap": 1,
      "phi": 0,
      "owner": null,
      "xcoord": null,
      "ycoord": null
    },
    {
      "idx": 2,
      "u": 1,
      "name": "Line 1-5",
      "bus1": 0,
      "bus2": 4,
      "Sn": 100,
      "fn": 60,
      "Vn1": 230,
      "Vn2": 230,
      "r": 0.00064,
      "x": 0.0064,
      "b": 0.03126,
      "g": 0,
      "b1": 0,
      "g1": 0,
      "b2": 0,
      "g2": 0,
      "trans": 0,
      "tap": 1,
      "phi": 0,
      "owner": null,
      "xcoord": null,
      "ycoord": null
    },
    {
      "idx": 3,
      "u": 1,
      "name": "Line 2-3",
      "bus1": 1,
      "bus2": 2,
      "Sn": 100,
      "fn": 60,
      "Vn1": 230,
      "Vn2": 230,
      "r": 0.00108,
      "x": 0.0108,
      "b": 0.01852,
      "g": 0,
      "b1": 0,
      "g1": 0,
      "b2": 0,
      "g2": 0,
      "trans": 0,
      "tap": 1,
      "phi": 0,
      "owner": null,
      "xcoord": null,
      "ycoord": null
    },
    {
      "idx": 4,
      "u": 1,
      "name": "Line 3-4",
      "bus1": 2,
      "bus2": 3,
      "Sn": 100,
      "fn": 60,
      "Vn1": 230,
      "Vn2": 230,
      "r": 0.00297,
      "x": 0.0297,
      "b": 0.00674,
      "g": 0,
      "b1": 0,
      "g1": 0,
      "b2": 0,
      "g2": 0,
      "trans": 0,
      "tap": 1,
      "phi": 0,
      "owner": null,
      "xcoord": null,
      "ycoord": null
    },
    {
      "idx": 5,
      "u": 1,
      "name": "Line 4-5",
      "bus1": 3,
      "bus2": 4,
      "Sn": 100,
      "fn": 60,
      "Vn1": 230,
      "Vn2": 230,
      "r": 0.00297,
      "x": 0.0297,
      "b": 0.00674,
      "g": 0,
      "b1": 0,
      "g1": 0,
      "b2": 0,
      "g2": 0,
      "trans": 0,
      "tap": 1,
      "phi": 0,
      "owner": null,
      "xcoord": null,
      "ycoord": null
    },
    {
      "idx": 6,
      "u": 1,
      "name": "Line 1-2 (2)",
      "bus1": 0,
      "bus2": 1,
      "Sn": 100,
      "fn": 60,
      "Vn1": 230,
      "Vn2": 230,
      "r": 0.00281,
      "x": 0.0281,
      "b": 0.00712,
      "g": 0,
      "b1": 0,
      "g1": 0,
      "b2": 0,
      "g2": 0,
      "trans": 0,
      "tap": 1,
      "phi": 0,
      "owner": null,
      "xcoord": null,
      "ycoord": null
    }
  ],
  "Area": [
    {
      "idx": 1,
      "u": 1,
      "name": null
    },
    {
      "idx": 2,
      "u": 1,
      "name": null
    },
    {
      "idx": 3,
      "u": 1,
      "name": null
    }
  ],
  "GENCLS": [
    {
      "idx": 0,
      "u": 1,
      "name": null,
      "bus": 0,
      "gen": 0,
      "coi": null,
      "Sn": 200,
      "Vn": 230,
      "fn": 60,
      "D": 0,
      "M": 4,
      "ra": 0,
      "xl": 0,
      "xd1": 1.7,
      "kp": 0,
      "kw": 0,
      "S10": 0.15,
      "S12": 0.7,
      "gammap": 1.0,
      "gammaq": 1.0
    },
    {
      "idx": 2,
      "u": 1,
      "name": null,
      "bus": 2,
      "gen": 2,
      "coi": null,
      "Sn": 300,
      "Vn": 230,
      "fn": 60,
      "D": 0,
      "M": 4,
      "ra": 0,
      "xl": 0,
      "xd1": 1.7,
      "kp": 0,
      "kw": 0,
      "S10": 1.0,
      "S12": 1.0,
      "gammap": 1.0,
      "gammaq": 1.0
    },
    {
      "idx": 3,
      "u": 1,
      "name": null,
      "bus": 3,
      "gen": 3,
      "coi": null,
      "Sn": 200,
      "Vn": 230,
      "fn": 60,
      "D": 0,
      "M": 4,
      "ra": 0,
      "xl": 0,
      "xd1": 1.7,
      "kp": 0,
      "kw": 0,
      "S10": 1.0,
      "S12": 1.0,
      "gammap": 1.0,
      "gammaq": 1.0
    },
    {
      "idx": 4,
      "u": 1,
      "name": null,
      "bus": 4,
      "gen": 4,
      "coi": null,
      "Sn": 300,
      "Vn": 230,
      "fn": 60,
      "D": 0,
      "M": 4,
      "ra": 0,
      "xl": 0,
      "xd1": 1.7,
      "kp": 0,
      "kw": 0,
      "S10": 1.0,
      "S12": 1.0,
      "gammap": 1.0,
      "gammaq": 1.0
    }
  ],
  "TG2": [
    {
      "idx": 1,
      "u": 1,
      "name": null,
      "syn": 0,
      "Tn": null,
      "wref0": 1,
      "R": 0.05,
      "pmax": 999,
      "pmin": 0,
      "dbl": -0.0001,
      "dbu": 0.0001,
      "dbc": 0,
      "T1": 0.2,
      "T2": 10
    },
    {
      "idx": 2,
      "u": 1,
      "name": null,
      "syn": 2,
      "Tn": null,
      "wref0": 1,
      "R": 0.05,
      "pmax": 999,
      "pmin": 0,
      "dbl": -0.0001,
      "dbu": 0.0001,
      "dbc": 0,
      "T1": 0.2,
      "T2": 10
    },
    {
      "idx": 3,
      "u": 1,
      "name": null,
      "syn": 3,
      "Tn": null,
      "wref0": 1,
      "R": 0.05,
      "pmax": 999,
      "pmin": 0,
      "dbl": -0.0001,
      "dbu": 0.0001,
      "dbc": 0,
      "T1": 0.2,
      "T2": 10
    },
    {
      "idx": 4,
      "u": 1,
      "name": null,
      "syn": 4,
      "Tn": null,
      "wref0": 1,
      "R": 0.05,
      "pmax": 999,
      "pmin": 0,
      "dbl": -0.0001,
      "dbu": 0.0001,
      "dbc": 0,
      "T1": 0.2,
      "T2": 10
    }
  ]
}{
  "Fault": [
    {
      "idx": 1,
      "u": 1,
      "name": "Fault_1",
      "bus": 9,
      "tf": 1,
      "tc": 1.1,
      "xf": 0.0001,
      "rf": 0
    }
  ],
  "Bus": [
    {
      "idx": 1,
      "u": 1,
      "name": "BUS1",
      "Vn": 69,
      "vmax": 1.1,
      "vmin": 0.9,
      "v0": 1.03,
      "a0": 0.0,
      "xcoord": 0,
      "ycoord": 0,
      "area": 1,
      "zone": 1,
      "owner": 1
    },
    {
      "idx": 2,
      "u": 1,
      "name": "BUS2",
      "Vn": 69,
      "vmax": 1.1,
      "vmin": 0.9,
      "v0": 1.0197,
      "a0": -0.0279811185679731,
      "xcoord": 0,
      "ycoord": 0,
      "area": 1,
      "zone": 1,
      "owner": 1
    },
    {
      "idx": 3,
      "u": 1,
      "name": "BUS3",
      "Vn": 69,
      "vmax": 1.1,
      "vmin": 0.9,
      "v0": 1.00042,
      "a0": -0.0600969221339207,
      "xcoord": 0,
      "ycoord": 0,
      "area": 1,
      "zone": 1,
      "owner": 1
    },
    {
      "idx": 4,
      "u": 1,
      "name": "BUS4",
      "Vn": 69,
      "vmax": 1.1,
      "vmin": 0.9,
      "v0": 0.99858,
      "a0": -0.0747210359363812,
      "xcoord": 0,
      "ycoord": 0,
      "area": 1,
      "zone": 1,
      "owner": 1
    },
    {
      "idx": 5,
      "u": 1,
      "name": "BUS5",
      "Vn": 69,
      "vmax": 1.1,
      "vmin": 0.9,
      "v0": 1.00443,
      "a0": -0.064315382935991,
      "xcoord": 0,
      "ycoord": 0,
      "area": 1,
      "zone": 1,
      "owner": 1
    },
    {
      "idx": 6,
      "u": 1,
      "name": "BUS6",
      "Vn": 138,
      "vmax": 1.1,
      "vmin": 0.9,
      "v0": 0.99871,
      "a0": -0.109997630777691,
      "xcoord": 0,
      "ycoord": 0,
      "area": 2,
      "zone": 2,
      "owner": 2
    },
    {
      "idx": 7,
      "u": 1,
      "name": "BUS7",
      "Vn": 138,
      "vmax": 1.1,
      "vmin": 0.9,
      "v0": 1.00682,
      "a0": -0.0842854402373102,
      "xcoord": 0,
      "ycoord": 0,
      "area": 2,
      "zone": 2,
      "owner": 2
    },
    {
      "idx": 8,
      "u": 1,
      "name": "BUS8",
      "Vn": 69,
      "vmax": 1.1,
      "vmin": 0.9,
      "v0": 1.01895,
      "a0": -0.0243386164190609,
      "xcoord": 0,
      "ycoord": 0,
      "area": 2,
      "zone": 2,
      "owner": 2
    },
    {
      "idx": 9,
      "u": 1,
      "name": "BUS9",
      "Vn": 138,
      "vmax": 1.1,
      "vmin": 0.9,
      "v0": 1.00193,
      "a0": -0.127501537845942,
      "xcoord": 0,
      "ycoord": 0,
      "area": 2,
      "zone": 2,
      "owner": 2
    },
    {
      "idx": 10,
      "u": 1,
      "name": "BUS10",
      "Vn": 138,
      "vmax": 1.1,
      "vmin": 0.9,
      "v0": 0.99351,
      "a0": -0.130201562198777,
      "xcoord": 0,
      "ycoord": 0,
      "area": 2,
      "zone": 2,
      "owner": 2
    },
    {
      "idx": 11,
      "u": 1,
      "name": "BUS11",
      "Vn": 138,
      "vmax": 1.1,
      "vmin": 0.9,
      "v0": 0.99245,
      "a0": -0.122947973827489,
      "xcoord": 0,
      "ycoord": 0,
      "area": 2,
      "zone": 2,
      "owner": 2
    },
    {
      "idx": 12,
      "u": 1,
      "name": "BUS12",
      "Vn": 138,
      "vmax": 1.1,
      "vmin": 0.9,
      "v0": 0.98639,
      "a0": -0.128934453161829,
      "xcoord": 0,
      "ycoord": 0,
      "area": 2,
      "zone": 2,
      "owner": 2
    },
    {
      "idx": 13,
      "u": 1,
      "name": "BUS13",
      "Vn": 138,
      "vmax": 1.1,
      "vmin": 0.9,
      "v0": 0.98403,
      "a0": -0.133786468482373,
      "xcoord": 0,
      "ycoord": 0,
      "area": 2,
      "zone": 2,
      "owner": 2
    },
    {
      "idx": 14,
      "u": 1,
      "name": "BUS14",
      "Vn": 138,
      "vmax": 1.1,
      "vmin": 0.9,
      "v0": 0.99063,
      "a0": -0.16691630834373,
      "xcoord": 0,
      "ycoord": 0,
      "area": 2,
      "zone": 2,
      "owner": 2
    }
  ],
  "PQ": [
    {
      "idx": "PQ_1",
      "u": 1,
      "name": "PQ_1",
      "bus": 2,
      "Vn": 69,
      "p0": 0.217,
      "q0": 0.127,
      "vmax": 1.2,
      "vmin": 0.8,
      "owner": 1
    },
    {
      "idx": "PQ_2",
      "u": 1,
      "name": "PQ_2",
      "bus": 3,
      "Vn": 69,
      "p0": 0.5,
      "q0": 0.25,
      "vmax": 1.2,
      "vmin": 0.8,
      "owner": 1
    },
    {
      "idx": "PQ_3",
      "u": 1,
      "name": "PQ_3",
      "bus": 4,
      "Vn": 69,
      "p0": 0.478,
      "q0": 0.1,
      "vmax": 1.2,
      "vmin": 0.8,
      "owner": 1
    },
    {
      "idx": "PQ_4",
      "u": 1,
      "name": "PQ_4",
      "bus": 5,
      "Vn": 69,
      "p0": 0.076,
      "q0": 0.016,
      "vmax": 1.2,
      "vmin": 0.8,
      "owner": 1
    },
    {
      "idx": "PQ_5",
      "u": 1,
      "name": "PQ_5",
      "bus": 6,
      "Vn": 138,
      "p0": 0.15,
      "q0": 0.075,
      "vmax": 1.2,
      "vmin": 0.8,
      "owner": 2
    },
    {
      "idx": "PQ_6",
      "u": 1,
      "name": "PQ_6",
      "bus": 9,
      "Vn": 138,
      "p0": 0.295,
      "q0": 0.166,
      "vmax": 1.2,
      "vmin": 0.8,
      "owner": 2
    },
    {
      "idx": "PQ_7",
      "u": 1,
      "name": "PQ_7",
      "bus": 10,
      "Vn": 138,
      "p0": 0.09,
      "q0": 0.058,
      "vmax": 1.2,
      "vmin": 0.8,
      "owner": 2
    },
    {
      "idx": "PQ_8",
      "u": 1,
      "name": "PQ_8",
      "bus": 11,
      "Vn": 138,
      "p0": 0.035,
      "q0": 0.018,
      "vmax": 1.2,
      "vmin": 0.8,
      "owner": 2
    },
    {
      "idx": "PQ_9",
      "u": 1,
      "name": "PQ_9",
      "bus": 12,
      "Vn": 138,
      "p0": 0.061,
      "q0": 0.016,
      "vmax": 1.2,
      "vmin": 0.8,
      "owner": 2
    },
    {
      "idx": "PQ_10",
      "u": 1,
      "name": "PQ_10",
      "bus": 13,
      "Vn": 138,
      "p0": 0.135,
      "q0": 0.058,
      "vmax": 1.2,
      "vmin": 0.8,
      "owner": 2
    },
    {
      "idx": "PQ_11",
      "u": 1,
      "name": "PQ_11",
      "bus": 14,
      "Vn": 138,
      "p0": 0.2,
      "q0": 0.07,
      "vmax": 1.2,
      "vmin": 0.8,
      "owner": 2
    }
  ],
  "PV": [
    {
      "idx": 2,
      "u": 1,
      "name": 2,
      "Sn": 100,
      "Vn": 69,
      "bus": 2,
      "busr": null,
      "p0": 0.4,
      "q0": 0.15,
      "pmax": 0.5,
      "pmin": 0.1,
      "qmax": 0.15,
      "qmin": -0.4,
      "v0": 1.03,
      "vmax": 1.4,
      "vmin": 0.6,
      "ra": 0,
      "xs": 0.13
    },
    {
      "idx": 3,
      "u": 1,
      "name": 3,
      "Sn": 100,
      "Vn": 69,
      "bus": 3,
      "busr": null,
      "p0": 0.4,
      "q0": 0.15,
      "pmax": 0.5,
      "pmin": 0.1,
      "qmax": 0.15,
      "qmin": -0.1,
      "v0": 1.01,
      "vmax": 1.4,
      "vmin": 0.6,
      "ra": 0,
      "xs": 0.13
    },
    {
      "idx": 4,
      "u": 1,
      "name": 4,
      "Sn": 100,
      "Vn": 138,
      "bus": 6,
      "busr": null,
      "p0": 0.3,
      "q0": 0.1,
      "pmax": 0.5,
      "pmin": 0.1,
      "qmax": 0.1,
      "qmin": -0.06,
      "v0": 1.03,
      "vmax": 1.4,
      "vmin": 0.6,
      "ra": 0,
      "xs": 0.12
    },
    {
      "idx": 5,
      "u": 1,
      "name": 5,
      "Sn": 100,
      "Vn": 69,
      "bus": 8,
      "busr": null,
      "p0": 0.35,
      "q0": 0.1,
      "pmax": 0.5,
      "pmin": 0.1,
      "qmax": 0.1,
      "qmin": -0.06,
      "v0": 1.03,
      "vmax": 1.4,
      "vmin": 0.6,
      "ra": 0,
      "xs": 0.12
    }
  ],
  "Slack": [
    {
      "idx": 1,
      "u": 1,
      "name": 1,
      "Sn": 100,
      "Vn": 69,
      "bus": 1,
      "busr": null,
      "p0": 0.81442,
      "q0": 0.01962,
      "pmax": 2,
      "pmin": 0.5,
      "qmax": 1,
      "qmin": -0.5,
      "v0": 1.03,
      "vmax": 1.4,
      "vmin": 0.6,
      "ra": 0,
      "xs": 0.23,
      "a0": 0
    }
  ],
  "Shunt": [
    {
      "idx": "Shunt_1",
      "u": 1,
      "name": "Shunt_1",
      "bus": 9,
      "Sn": 100,
      "Vn": 138,
      "g": 0,
      "b": 0.19,
      "fn": 60
    },
    {
      "idx": "Shunt_2",
      "u": 1,
      "name": "Shunt_2",
      "bus": 14,
      "Sn": 100,
      "Vn": 138,
      "g": 0,
      "b": 0.15,
      "fn": 60
    }
  ],
  "Line": [
    {
      "idx": "Line_1",
      "u": 1,
      "name": "Line_1",
      "bus1": 1,
      "bus2": 2,
      "Sn": 100,
      "fn": 60,
      "Vn1": 69,
      "Vn2": 69,
      "r": 0.01938,
      "x": 0.05917,
      "b": 0.0528,
      "g": 0,
      "b1": 0,
      "g1": 0,
      "b2": 0,
      "g2": 0,
      "trans": 0,
      "tap": 1.0,
      "phi": 0,
      "owner": null,
      "xcoord": null,
      "ycoord": null
    },
    {
      "idx": "Line_2",
      "u": 1,
      "name": "Line_2",
      "bus1": 1,
      "bus2": 5,
      "Sn": 100,
      "fn": 60,
      "Vn1": 69,
      "Vn2": 69,
      "r": 0.05403,
      "x": 0.22304,
      "b": 0.0492,
      "g": 0,
      "b1": 0,
      "g1": 0,
      "b2": 0,
      "g2": 0,
      "trans": 0,
      "tap": 1.0,
      "phi": 0,
      "owner": null,
      "xcoord": null,
      "ycoord": null
    },
    {
      "idx": "Line_3",
      "u": 1,
      "name": "Line_3",
      "bus1": 2,
      "bus2": 3,
      "Sn": 100,
      "fn": 60,
      "Vn1": 69,
      "Vn2": 69,
      "r": 0.04699,
      "x": 0.19797,
      "b": 0.0438,
      "g": 0,
      "b1": 0,
      "g1": 0,
      "b2": 0,
      "g2": 0,
      "trans": 0,
      "tap": 1.0,
      "phi": 0,
      "owner": null,
      "xcoord": null,
      "ycoord": null
    },
    {
      "idx": "Line_4",
      "u": 1,
      "name": "Line_4",
      "bus1": 2,
      "bus2": 4,
      "Sn": 100,
      "fn": 60,
      "Vn1": 69,
      "Vn2": 69,
      "r": 0.05811,
      "x": 0.17632,
      "b": 0.034,
      "g": 0,
      "b1": 0,
      "g1": 0,
      "b2": 0,
      "g2": 0,
      "trans": 0,
      "tap": 1.0,
      "phi": 0,
      "owner": null,
      "xcoord": null,
      "ycoord": null
    },
    {
      "idx": "Line_5",
      "u": 1,
      "name": "Line_5",
      "bus1": 2,
      "bus2": 5,
      "Sn": 100,
      "fn": 60,
      "Vn1": 69,
      "Vn2": 69,
      "r": 0.05695,
      "x": 0.17388,
      "b": 0.0346,
      "g": 0,
      "b1": 0,
      "g1": 0,
      "b2": 0,
      "g2": 0,
      "trans": 0,
      "tap": 1.0,
      "phi": 0,
      "owner": null,
      "xcoord": null,
      "ycoord": null
    },
    {
      "idx": "Line_6",
      "u": 1,
      "name": "Line_6",
      "bus1": 3,
      "bus2": 4,
      "Sn": 100,
      "fn": 60,
      "Vn1": 69,
      "Vn2": 69,
      "r": 0.06701,
      "x": 0.17103,
      "b": 0.0128,
      "g": 0,
      "b1": 0,
      "g1": 0,
      "b2": 0,
      "g2": 0,
      "trans": 0,
      "tap": 1.0,
      "phi": 0,
      "owner": null,
      "xcoord": null,
      "ycoord": null
    },
    {
      "idx": "Line_7",
      "u": 1,
      "name": "Line_7",
      "bus1": 4,
      "bus2": 5,
      "Sn": 100,
      "fn": 60,
      "Vn1": 69,
      "Vn2": 69,
      "r": 0.01335,
      "x": 0.04211,
      "b": 0.0,
      "g": 0,
      "b1": 0,
      "g1": 0,
      "b2": 0,
      "g2": 0,
      "trans": 0,
      "tap": 1.0,
      "phi": 0,
      "owner": null,
      "xcoord": null,
      "ycoord": null
    },
    {
      "idx": "Line_8",
      "u": 1,
      "name": "Line_8",
      "bus1": 6,
      "bus2": 11,
      "Sn": 100,
      "fn": 60,
      "Vn1": 138,
      "Vn2": 138,
      "r": 0.09498,
      "x": 0.1989,
      "b": 0.0,
      "g": 0,
      "b1": 0,
      "g1": 0,
      "b2": 0,
      "g2": 0,
      "trans": 0,
      "tap": 1.0,
      "phi": 0,
      "owner": null,
      "xcoord": null,
      "ycoord": null
    },
    {
      "idx": "Line_9",
      "u": 1,
      "name": "Line_9",
      "bus1": 6,
      "bus2": 12,
      "Sn": 100,
      "fn": 60,
      "Vn1": 138,
      "Vn2": 138,
      "r": 0.12291,
      "x": 0.25581,
      "b": 0.0,
      "g": 0,
      "b1": 0,
      "g1": 0,
      "b2": 0,
      "g2": 0,
      "trans": 0,
      "tap": 1.0,
      "phi": 0,
      "owner": null,
      "xcoord": null,
      "ycoord": null
    },
    {
      "idx": "Line_10",
      "u": 1,
      "name": "Line_10",
      "bus1": 6,
      "bus2": 13,
      "Sn": 100,
      "fn": 60,
      "Vn1": 138,
      "Vn2": 138,
      "r": 0.06615,
      "x": 0.13027,
      "b": 0.0,
      "g": 0,
      "b1": 0,
      "g1": 0,
      "b2": 0,
      "g2": 0,
      "trans": 0,
      "tap": 1.0,
      "phi": 0,
      "owner": null,
      "xcoord": null,
      "ycoord": null
    },
    {
      "idx": "Line_11",
      "u": 1,
      "name": "Line_11",
      "bus1": 7,
      "bus2": 9,
      "Sn": 100,
      "fn": 60,
      "Vn1": 138,
      "Vn2": 138,
      "r": 0.0,
      "x": 0.11001,
      "b": 0.0,
      "g": 0,
      "b1": 0,
      "g1": 0,
      "b2": 0,
      "g2": 0,
      "trans": 0,
      "tap": 1.0,
      "phi": 0,
      "owner": null,
      "xcoord": null,
      "ycoord": null
    },
    {
      "idx": "Line_12",
      "u": 1,
      "name": "Line_12",
      "bus1": 9,
      "bus2": 10,
      "Sn": 100,
      "fn": 60,
      "Vn1": 138,
      "Vn2": 138,
      "r": 0.03181,
      "x": 0.0845,
      "b": 0.0,
      "g": 0,
      "b1": 0,
      "g1": 0,
      "b2": 0,
      "g2": 0,
      "trans": 0,
      "tap": 1.0,
      "phi": 0,
      "owner": null,
      "xcoord": null,
      "ycoord": null
    },
    {
      "idx": "Line_13",
      "u": 1,
      "name": "Line_13",
      "bus1": 9,
      "bus2": 14,
      "Sn": 100,
      "fn": 60,
      "Vn1": 138,
      "Vn2": 138,
      "r": 0.12711,
      "x": 0.27038,
      "b": 0.0,
      "g": 0,
      "b1": 0,
      "g1": 0,
      "b2": 0,
      "g2": 0,
      "trans": 0,
      "tap": 1.0,
      "phi": 0,
      "owner": null,
      "xcoord": null,
      "ycoord": null
    },
    {
      "idx": "Line_14",
      "u": 1,
      "name": "Line_14",
      "bus1": 10,
      "bus2": 11,
      "Sn": 100,
      "fn": 60,
      "Vn1": 138,
      "Vn2": 138,
      "r": 0.08205,
      "x": 0.19207,
      "b": 0.0,
      "g": 0,
      "b1": 0,
      "g1": 0,
      "b2": 0,
      "g2": 0,
      "trans": 0,
      "tap": 1.0,
      "phi": 0,
      "owner": null,
      "xcoord": null,
      "ycoord": null
    },
    {
      "idx": "Line_15",
      "u": 1,
      "name": "Line_15",
      "bus1": 12,
      "bus2": 13,
      "Sn": 100,
      "fn": 60,
      "Vn1": 138,
      "Vn2": 138,
      "r": 0.22092,
      "x": 0.19988,
      "b": 0.0,
      "g": 0,
      "b1": 0,
      "g1": 0,
      "b2": 0,
      "g2": 0,
      "trans": 0,
      "tap": 1.0,
      "phi": 0,
      "owner": null,
      "xcoord": null,
      "ycoord": null
    },
    {
      "idx": "Line_16",
      "u": 1,
      "name": "Line_16",
      "bus1": 13,
      "bus2": 14,
      "Sn": 100,
      "fn": 60,
      "Vn1": 138,
      "Vn2": 138,
      "r": 0.17093,
      "x": 0.34802,
      "b": 0.0,
      "g": 0,
      "b1": 0,
      "g1": 0,
      "b2": 0,
      "g2": 0,
      "trans": 0,
      "tap": 1.0,
      "phi": 0,
      "owner": null,
      "xcoord": null,
      "ycoord": null
    },
    {
      "idx": "Line_17",
      "u": 1,
      "name": "Line_17",
      "bus1": 4,
      "bus2": 7,
      "Sn": 100,
      "fn": 60,
      "Vn1": 69,
      "Vn2": 138,
      "r": 0.0,
      "x": 0.20912,
      "b": 0.0,
      "g": 0,
      "b1": 0,
      "g1": 0,
      "b2": 0,
      "g2": 0,
      "trans": 1,
      "tap": 0.99677,
      "phi": 0,
      "owner": null,
      "xcoord": null,
      "ycoord": null
    },
    {
      "idx": "Line_18",
      "u": 1,
      "name": "Line_18",
      "bus1": 4,
      "bus2": 9,
      "Sn": 100,
      "fn": 60,
      "Vn1": 69,
      "Vn2": 138,
      "r": 0.0,
      "x": 0.55618,
      "b": 0.0,
      "g": 0,
      "b1": 0,
      "g1": 0,
      "b2": 0,
      "g2": 0,
      "trans": 1,
      "tap": 0.99677,
      "phi": 0,
      "owner": null,
      "xcoord": null,
      "ycoord": null
    },
    {
      "idx": "Line_19",
      "u": 1,
      "name": "Line_19",
      "bus1": 6,
      "bus2": 5,
      "Sn": 100,
      "fn": 60,
      "Vn1": 138,
      "Vn2": 69,
      "r": 0.0,
      "x": 0.25202,
      "b": 0.0,
      "g": 0,
      "b1": 0,
      "g1": 0,
      "b2": 0,
      "g2": 0,
      "trans": 1,
      "tap": 0.99677,
      "phi": 0,
      "owner": null,
      "xcoord": null,
      "ycoord": null
    },
    {
      "idx": "Line_20",
      "u": 1,
      "name": "Line_20",
      "bus1": 8,
      "bus2": 7,
      "Sn": 100,
      "fn": 60,
      "Vn1": 69,
      "Vn2": 138,
      "r": 0.0,
      "x": 0.17615,
      "b": 0.0,
      "g": 0,
      "b1": 0,
      "g1": 0,
      "b2": 0,
      "g2": 0,
      "trans": 1,
      "tap": 0.99677,
      "phi": 0,
      "owner": null,
      "xcoord": null,
      "ycoord": null
    }
  ],
  "Area": [
    {
      "idx": 1,
      "u": 1,
      "name": "AREA1"
    },
    {
      "idx": 2,
      "u": 1,
      "name": "AREA2"
    }
  ],
  "GENROU": [
    {
      "idx": "GENROU_1",
      "u": 1,
      "name": "GENROU_1",
      "bus": 1,
      "gen": 1,
      "coi": null,
      "Sn": 100,
      "Vn": 69,
      "fn": 60,
      "D": 0,
      "M": 8,
      "ra": 0,
      "xl": 0.15,
      "xd1": 0.6,
      "kp": 0,
      "kw": 0,
      "S10": 0.09,
      "S12": 0.38,
      "gammap": 1.0,
      "gammaq": 1.0,
      "xd": 1.8,
      "xq": 1.75,
      "xd2": 0.23,
      "xq1": 0.8,
      "xq2": 0.23,
      "Td10": 6.5,
      "Td20": 0.06,
      "Tq10": 0.2,
      "Tq20": 0.05
    },
    {
      "idx": "GENROU_2",
      "u": 1,
      "name": "GENROU_2",
      "bus": 2,
      "gen": 2,
      "coi": null,
      "Sn": 100,
      "Vn": 69,
      "fn": 60,
      "D": 0,
      "M": 13,
      "ra": 0,
      "xl": 0.15,
      "xd1": 0.6,
      "kp": 0,
      "kw": 0,
      "S10": 0.09,
      "S12": 0.38,
      "gammap": 1.0,
      "gammaq": 1.0,
      "xd": 1.8,
      "xq": 1.75,
      "xd2": 0.28,
      "xq1": 0.8,
      "xq2": 0.28,
      "Td10": 6.5,
      "Td20": 0.06,
      "Tq10": 0.2,
      "Tq20": 0.05
    },
    {
      "idx": "GENROU_3",
      "u": 1,
      "name": "GENROU_3",
      "bus": 3,
      "gen": 3,
      "coi": null,
      "Sn": 100,
      "Vn": 69,
      "fn": 60,
      "D": 0,
      "M": 10,
      "ra": 0,
      "xl": 0.15,
      "xd1": 0.6,
      "kp": 0,
      "kw": 0,
      "S10": 0.09,
      "S12": 0.38,
      "gammap": 1.0,
      "gammaq": 1.0,
      "xd": 1.8,
      "xq": 1.75,
      "xd2": 0.34,
      "xq1": 0.8,
      "xq2": 0.34,
      "Td10": 6.5,
      "Td20": 0.06,
      "Tq10": 0.2,
      "Tq20": 0.05
    },
    {
      "idx": "GENROU_4",
      "u": 1,
      "name": "GENROU_4",
      "bus": 6,
      "gen": 4,
      "coi": null,
      "Sn": 100,
      "Vn": 138,
      "fn": 60,
      "D": 0,
      "M": 10,
      "ra": 0,
      "xl": 0.15,
      "xd1": 0.6,
      "kp": 0,
      "kw": 0,
      "S10": 0.09,
      "S12": 0.38,
      "gammap": 1.0,
      "gammaq": 1.0,
      "xd": 1.8,
      "xq": 1.75,
      "xd2": 0.28,
      "xq1": 0.8,
      "xq2": 0.28,
      "Td10": 6.5,
      "Td20": 0.06,
      "Tq10": 0.2,
      "Tq20": 0.05
    },
    {
      "idx": "GENROU_5",
      "u": 1,
      "name": "GENROU_5",
      "bus": 8,
      "gen": 5,
      "coi": null,
      "Sn": 100,
      "Vn": 69,
      "fn": 60,
      "D": 0,
      "M": 10,
      "ra": 0,
      "xl": 0.15,
      "xd1": 0.6,
      "kp": 0,
      "kw": 0,
      "S10": 0.09,
      "S12": 0.38,
      "gammap": 1.0,
      "gammaq": 1.0,
      "xd": 1.8,
      "xq": 1.75,
      "xd2": 0.34,
      "xq1": 0.8,
      "xq2": 0.34,
      "Td10": 6.5,
      "Td20": 0.06,
      "Tq10": 0.2,
      "Tq20": 0.05
    }
  ],
  "TGOV1": [
    {
      "idx": "TGOV1_1",
      "u": 1,
      "name": "TGOV1_1",
      "syn": "GENROU_1",
      "Tn": null,
      "wref0": 1,
      "R": 0.05,
      "VMAX": 1.05,
      "VMIN": 0.3,
      "T1": 0.05,
      "T2": 1,
      "T3": 2.1,
      "Dt": 0
    },
    {
      "idx": "TGOV1_2",
      "u": 1,
      "name": "TGOV1_2",
      "syn": "GENROU_2",
      "Tn": null,
      "wref0": 1,
      "R": 0.05,
      "VMAX": 1.2,
      "VMIN": 0.0,
      "T1": 0.1,
      "T2": 1,
      "T3": 2.1,
      "Dt": 0
    },
    {
      "idx": "TGOV1_3",
      "u": 1,
      "name": "TGOV1_3",
      "syn": "GENROU_3",
      "Tn": null,
      "wref0": 1,
      "R": 0.05,
      "VMAX": 1.2,
      "VMIN": 0.0,
      "T1": 0.1,
      "T2": 1,
      "T3": 2.1,
      "Dt": 0
    },
    {
      "idx": "TGOV1_4",
      "u": 1,
      "name": "TGOV1_4",
      "syn": "GENROU_4",
      "Tn": null,
      "wref0": 1,
      "R": 0.05,
      "VMAX": 1.05,
      "VMIN": 0.3,
      "T1": 0.05,
      "T2": 1,
      "T3": 2.1,
      "Dt": 0
    },
    {
      "idx": "TGOV1_5",
      "u": 1,
      "name": "TGOV1_5",
      "syn": "GENROU_5",
      "Tn": null,
      "wref0": 1,
      "R": 0.05,
      "VMAX": 1.05,
      "VMIN": 0.3,
      "T1": 0.05,
      "T2": 1,
      "T3": 2.1,
      "Dt": 0
    }
  ],
  "EXST1": [
    {
      "idx": "EXST1_1",
      "u": 1,
      "name": "EXST1_1",
      "syn": "GENROU_2",
      "TR": 0.02,
      "VIMAX": 99,
      "VIMIN": -99,
      "TC": 0,
      "TB": 0.02,
      "KA": 50,
      "TA": 0.02,
      "VRMAX": 9999,
      "VRMIN": -9999,
      "KC": 0,
      "KF": 0.01,
      "TF": 1
    }
  ],
  "ESST3A": [
    {
      "idx": "ESST3A_2",
      "u": 1,
      "name": "ESST3A_2",
      "syn": "GENROU_1",
      "TR": 0.02,
      "VIMAX": 0.2,
      "VIMIN": -0.2,
      "KM": 8,
      "TC": 1,
      "TB": 5,
      "KA": 20,
      "TA": 0,
      "VRMAX": 99,
      "VRMIN": -99,
      "KG": 1,
      "KP": 3.67,
      "KI": 0.435,
      "VBMAX": 5.48,
      "KC": 0.01,
      "XL": 0.0098,
      "VGMAX": 3.86,
      "THETAP": 3.33,
      "TM": 0.4,
      "VMMAX": 99,
      "VMMIN": 0
    },
    {
      "idx": "ESST3A_3",
      "u": 1,
      "name": "ESST3A_3",
      "syn": "GENROU_3",
      "TR": 0.02,
      "VIMAX": 0.2,
      "VIMIN": -0.2,
      "KM": 8,
      "TC": 1,
      "TB": 5,
      "KA": 20,
      "TA": 0,
      "VRMAX": 99,
      "VRMIN": -99,
      "KG": 1,
      "KP": 3.67,
      "KI": 0.435,
      "VBMAX": 5.48,
      "KC": 0.01,
      "XL": 0.0098,
      "VGMAX": 3.86,
      "THETAP": 3.33,
      "TM": 0.4,
      "VMMAX": 99,
      "VMMIN": 0
    },
    {
      "idx": "ESST3A_4",
      "u": 1,
      "name": "ESST3A_4",
      "syn": "GENROU_4",
      "TR": 0.02,
      "VIMAX": 0.2,
      "VIMIN": -0.2,
      "KM": 8,
      "TC": 1,
      "TB": 5,
      "KA": 20,
      "TA": 0,
      "VRMAX": 99,
      "VRMIN": -99,
      "KG": 1,
      "KP": 3.67,
      "KI": 0.435,
      "VBMAX": 5.48,
      "KC": 0.01,
      "XL": 0.0098,
      "VGMAX": 3.86,
      "THETAP": 3.33,
      "TM": 0.4,
      "VMMAX": 99,
      "VMMIN": 0
    },
    {
      "idx": "ESST3A_5",
      "u": 1,
      "name": "ESST3A_5",
      "syn": "GENROU_5",
      "TR": 0.02,
      "VIMAX": 0.2,
      "VIMIN": -0.2,
      "KM": 8,
      "TC": 1,
      "TB": 5,
      "KA": 20,
      "TA": 0,
      "VRMAX": 99,
      "VRMIN": -99,
      "KG": 1,
      "KP": 3.67,
      "KI": 0.435,
      "VBMAX": 5.48,
      "KC": 0.01,
      "XL": 0.0098,
      "VGMAX": 3.86,
      "THETAP": 3.33,
      "TM": 0.4,
      "VMMAX": 99,
      "VMMIN": 0
    }
  ],
  "BusFreq": [
    {
      "idx": "BusFreq_1",
      "u": 1,
      "name": "BusFreq_1",
      "bus": 3,
      "Tf": 0.02,
      "Tw": 0.02,
      "fn": 60
    },
    {
      "idx": "BusFreq_2",
      "u": 1,
      "name": "BusFreq_2",
      "bus": 1,
      "Tf": 0.02,
      "Tw": 0.02,
      "fn": 60
    },
    {
      "idx": "BusFreq_3",
      "u": 1,
      "name": "BusFreq_3",
      "bus": 2,
      "Tf": 0.02,
      "Tw": 0.02,
      "fn": 60
    }
  ]
}{
  "Toggler": [
    {
      "idx": 1,
      "u": 1,
      "name": "Toggler_1",
      "model": "Line",
      "dev": "Line_8",
      "t": 2
    }
  ],
  "Bus": [
    {
      "idx": 1,
      "u": 1,
      "name": 1,
      "Vn": 20,
      "vmax": 1.1,
      "vmin": 0.9,
      "v0": 1.0,
      "a0": 0.5702549171626017,
      "xcoord": 0,
      "ycoord": 0,
      "area": 1,
      "zone": 1,
      "owner": 1
    },
    {
      "idx": 2,
      "u": 1,
      "name": 2,
      "Vn": 20,
      "vmax": 1.1,
      "vmin": 0.9,
      "v0": 0.99761,
      "a0": 0.3687461830443478,
      "xcoord": 0,
      "ycoord": 0,
      "area": 1,
      "zone": 1,
      "owner": 1
    },
    {
      "idx": 3,
      "u": 1,
      "name": 12,
      "Vn": 20,
      "vmax": 1.1,
      "vmin": 0.9,
      "v0": 0.96263,
      "a0": 0.1853173146475028,
      "xcoord": 0,
      "ycoord": 0,
      "area": 2,
      "zone": 1,
      "owner": 1
    },
    {
      "idx": 4,
      "u": 1,
      "name": 11,
      "Vn": 20,
      "vmax": 1.1,
      "vmin": 0.9,
      "v0": 0.81691,
      "a0": 0.462358662804314,
      "xcoord": 0,
      "ycoord": 0,
      "area": 2,
      "zone": 1,
      "owner": 1
    },
    {
      "idx": 5,
      "u": 1,
      "name": 101,
      "Vn": 230,
      "vmax": 1.1,
      "vmin": 0.9,
      "v0": 0.97928,
      "a0": 0.4802029090767038,
      "xcoord": 0,
      "ycoord": 0,
      "area": 1,
      "zone": 1,
      "owner": 1
    },
    {
      "idx": 6,
      "u": 1,
      "name": 102,
      "Vn": 230,
      "vmax": 1.1,
      "vmin": 0.9,
      "v0": 0.95796,
      "a0": 0.2838865294831329,
      "xcoord": 0,
      "ycoord": 0,
      "area": 1,
      "zone": 1,
      "owner": 1
    },
    {
      "idx": 7,
      "u": 1,
      "name": 3,
      "Vn": 230,
      "vmax": 1.1,
      "vmin": 0.9,
      "v0": 0.9362,
      "a0": 0.1269011445832536,
      "xcoord": 0,
      "ycoord": 0,
      "area": 1,
      "zone": 1,
      "owner": 1
    },
    {
      "idx": 8,
      "u": 1,
      "name": 13,
      "Vn": 230,
      "vmax": 1.1,
      "vmin": 0.9,
      "v0": 0.87904,
      "a0": -0.0805923235400888,
      "xcoord": 0,
      "ycoord": 0,
      "area": 2,
      "zone": 1,
      "owner": 1
    },
    {
      "idx": 9,
      "u": 1,
      "name": 112,
      "Vn": 230,
      "vmax": 1.1,
      "vmin": 0.9,
      "v0": 0.89054,
      "a0": 0.09361771574772226,
      "xcoord": 0,
      "ycoord": 0,
      "area": 2,
      "zone": 1,
      "owner": 1
    },
    {
      "idx": 10,
      "u": 1,
      "name": 111,
      "Vn": 230,
      "vmax": 1.1,
      "vmin": 0.9,
      "v0": 0.82958,
      "a0": 0.3366007088811167,
      "xcoord": 0,
      "ycoord": 0,
      "area": 2,
      "zone": 1,
      "owner": 1
    }
  ],
  "PQ": [
    {
      "idx": "PQ_0",
      "u": 1,
      "name": null,
      "bus": 7,
      "Vn": 230,
      "p0": 11.59,
      "q0": -0.735,
      "vmax": 1.1,
      "vmin": 0.9,
      "owner": 1
    },
    {
      "idx": "PQ_1",
      "u": 1,
      "name": null,
      "bus": 8,
      "Vn": 230,
      "p0": 15.75,
      "q0": -0.899,
      "vmax": 1.1,
      "vmin": 0.9,
      "owner": 1
    }
  ],
  "PV": [
    {
      "idx": 2,
      "u": 1,
      "name": null,
      "Sn": 900,
      "Vn": 20,
      "bus": 2,
      "busr": null,
      "p0": 7,
      "q0": 3.0,
      "pmax": 9,
      "pmin": 0,
      "qmax": 3.0,
      "qmin": 3.0,
      "v0": 1,
      "vmax": 1.4,
      "vmin": 0.6,
      "ra": 0,
      "xs": 0.25
    },
    {
      "idx": 3,
      "u": 1,
      "name": null,
      "Sn": 900,
      "Vn": 20,
      "bus": 3,
      "busr": null,
      "p0": 7,
      "q0": 5.5,
      "pmax": 9,
      "pmin": 0,
      "qmax": 5.5,
      "qmin": 5.5,
      "v0": 1,
      "vmax": 1.4,
      "vmin": 0.6,
      "ra": 0,
      "xs": 0.25
    },
    {
      "idx": 4,
      "u": 1,
      "name": null,
      "Sn": 900,
      "Vn": 20,
      "bus": 4,
      "busr": null,
      "p0": 7,
      "q0": -1.0,
      "pmax": 20,
      "pmin": 0,
      "qmax": -1.0,
      "qmin": -1.0,
      "v0": 1,
      "vmax": 1.4,
      "vmin": 0.6,
      "ra": 0,
      "xs": 0.25
    }
  ],
  "Slack": [
    {
      "idx": 1,
      "u": 1,
      "name": null,
      "Sn": 900,
      "Vn": 20,
      "bus": 1,
      "busr": null,
      "p0": 7.45861,
      "q0": 1.43612,
      "pmax": 9,
      "pmin": 0,
      "qmax": 6,
      "qmin": 0,
      "v0": 1,
      "vmax": 1.4,
      "vmin": 0.6,
      "ra": 0,
      "xs": 0.25,
      "a0": 0.5702549171626017
    }
  ],
  "Line": [
    {
      "idx": "Line_0",
      "u": 1,
      "name": null,
      "bus1": 5,
      "bus2": 6,
      "Sn": 100,
      "fn": 60,
      "Vn1": 230,
      "Vn2": 230,
      "r": 0.005,
      "x": 0.05,
      "b": 0.075,
      "g": 0,
      "b1": 0,
      "g1": 0,
      "b2": 0,
      "g2": 0,
      "trans": 0,
      "tap": 1,
      "phi": 0,
      "owner": null,
      "xcoord": null,
      "ycoord": null
    },
    {
      "idx": "Line_1",
      "u": 1,
      "name": null,
      "bus1": 5,
      "bus2": 6,
      "Sn": 100,
      "fn": 60,
      "Vn1": 230,
      "Vn2": 230,
      "r": 0.00501,
      "x": 0.05001,
      "b": 0.075,
      "g": 0,
      "b1": 0,
      "g1": 0,
      "b2": 0,
      "g2": 0,
      "trans": 0,
      "tap": 1,
      "phi": 0,
      "owner": null,
      "xcoord": null,
      "ycoord": null
    },
    {
      "idx": "Line_2",
      "u": 1,
      "name": null,
      "bus1": 6,
      "bus2": 7,
      "Sn": 100,
      "fn": 60,
      "Vn1": 230,
      "Vn2": 230,
      "r": 0.002,
      "x": 0.02,
      "b": 0.03,
      "g": 0,
      "b1": 0,
      "g1": 0,
      "b2": 0,
      "g2": 0,
      "trans": 0,
      "tap": 1,
      "phi": 0,
      "owner": null,
      "xcoord": null,
      "ycoord": null
    },
    {
      "idx": "Line_3",
      "u": 1,
      "name": null,
      "bus1": 6,
      "bus2": 7,
      "Sn": 100,
      "fn": 60,
      "Vn1": 230,
      "Vn2": 230,
      "r": 0.00201,
      "x": 0.02001,
      "b": 0.03,
      "g": 0,
      "b1": 0,
      "g1": 0,
      "b2": 0,
      "g2": 0,
      "trans": 0,
      "tap": 1,
      "phi": 0,
      "owner": null,
      "xcoord": null,
      "ycoord": null
    },
    {
      "idx": "Line_4",
      "u": 1,
      "name": null,
      "bus1": 7,
      "bus2": 8,
      "Sn": 100,
      "fn": 60,
      "Vn1": 230,
      "Vn2": 230,
      "r": 0.02201,
      "x": 0.22001,
      "b": 0.33,
      "g": 0,
      "b1": 0,
      "g1": 0,
      "b2": 0,
      "g2": 0,
      "trans": 0,
      "tap": 1,
      "phi": 0,
      "owner": null,
      "xcoord": null,
      "ycoord": null
    },
    {
      "idx": "Line_5",
      "u": 1,
      "name": null,
      "bus1": 7,
      "bus2": 8,
      "Sn": 100,
      "fn": 60,
      "Vn1": 230,
      "Vn2": 230,
      "r": 0.02202,
      "x": 0.22002,
      "b": 0.33,
      "g": 0,
      "b1": 0,
      "g1": 0,
      "b2": 0,
      "g2": 0,
      "trans": 0,
      "tap": 1,
      "phi": 0,
      "owner": null,
      "xcoord": null,
      "ycoord": null
    },
    {
      "idx": "Line_6",
      "u": 1,
      "name": null,
      "bus1": 7,
      "bus2": 8,
      "Sn": 100,
      "fn": 60,
      "Vn1": 230,
      "Vn2": 230,
      "r": 0.022,
      "x": 0.22,
      "b": 0.33,
      "g": 0,
      "b1": 0,
      "g1": 0,
      "b2": 0,
      "g2": 0,
      "trans": 0,
      "tap": 1,
      "phi": 0,
      "owner": null,
      "xcoord": null,
      "ycoord": null
    },
    {
      "idx": "Line_7",
      "u": 1,
      "name": null,
      "bus1": 8,
      "bus2": 9,
      "Sn": 100,
      "fn": 60,
      "Vn1": 230,
      "Vn2": 230,
      "r": 0.002,
      "x": 0.02,
      "b": 0.03,
      "g": 0,
      "b1": 0,
      "g1": 0,
      "b2": 0,
      "g2": 0,
      "trans": 0,
      "tap": 1,
      "phi": 0,
      "owner": null,
      "xcoord": null,
      "ycoord": null
    },
    {
      "idx": "Line_8",
      "u": 1,
      "name": null,
      "bus1": 8,
      "bus2": 9,
      "Sn": 100,
      "fn": 60,
      "Vn1": 230,
      "Vn2": 230,
      "r": 0.00201,
      "x": 0.02001,
      "b": 0.03,
      "g": 0,
      "b1": 0,
      "g1": 0,
      "b2": 0,
      "g2": 0,
      "trans": 0,
      "tap": 1,
      "phi": 0,
      "owner": null,
      "xcoord": null,
      "ycoord": null
    },
    {
      "idx": "Line_9",
      "u": 1,
      "name": null,
      "bus1": 9,
      "bus2": 10,
      "Sn": 100,
      "fn": 60,
      "Vn1": 230,
      "Vn2": 230,
      "r": 0.005,
      "x": 0.05,
      "b": 0.075,
      "g": 0,
      "b1": 0,
      "g1": 0,
      "b2": 0,
      "g2": 0,
      "trans": 0,
      "tap": 1,
      "phi": 0,
      "owner": null,
      "xcoord": null,
      "ycoord": null
    },
    {
      "idx": "Line_10",
      "u": 1,
      "name": null,
      "bus1": 9,
      "bus2": 10,
      "Sn": 100,
      "fn": 60,
      "Vn1": 230,
      "Vn2": 230,
      "r": 0.00501,
      "x": 0.05001,
      "b": 0.075,
      "g": 0,
      "b1": 0,
      "g1": 0,
      "b2": 0,
      "g2": 0,
      "trans": 0,
      "tap": 1,
      "phi": 0,
      "owner": null,
      "xcoord": null,
      "ycoord": null
    },
    {
      "idx": "Line_11",
      "u": 1,
      "name": null,
      "bus1": 1,
      "bus2": 5,
      "Sn": 100,
      "fn": 60,
      "Vn1": 20,
      "Vn2": 230,
      "r": 0.001,
      "x": 0.012,
      "b": 0.0,
      "g": 0,
      "b1": 0,
      "g1": 0,
      "b2": 0,
      "g2": 0,
      "trans": 0,
      "tap": 1,
      "phi": 0,
      "owner": null,
      "xcoord": null,
      "ycoord": null
    },
    {
      "idx": "Line_12",
      "u": 1,
      "name": null,
      "bus1": 2,
      "bus2": 6,
      "Sn": 100,
      "fn": 60,
      "Vn1": 20,
      "Vn2": 230,
      "r": 0.001,
      "x": 0.012,
      "b": 0.0,
      "g": 0,
      "b1": 0,
      "g1": 0,
      "b2": 0,
      "g2": 0,
      "trans": 0,
      "tap": 1,
      "phi": 0,
      "owner": null,
      "xcoord": null,
      "ycoord": null
    },
    {
      "idx": "Line_13",
      "u": 1,
      "name": null,
      "bus1": 3,
      "bus2": 9,
      "Sn": 100,
      "fn": 60,
      "Vn1": 20,
      "Vn2": 230,
      "r": 0.001,
      "x": 0.012,
      "b": 0.0,
      "g": 0,
      "b1": 0,
      "g1": 0,
      "b2": 0,
      "g2": 0,
      "trans": 0,
      "tap": 1,
      "phi": 0,
      "owner": null,
      "xcoord": null,
      "ycoord": null
    },
    {
      "idx": "Line_14",
      "u": 1,
      "name": null,
      "bus1": 4,
      "bus2": 10,
      "Sn": 100,
      "fn": 60,
      "Vn1": 20,
      "Vn2": 230,
      "r": 0.001,
      "x": 0.012,
      "b": 0.0,
      "g": 0,
      "b1": 0,
      "g1": 0,
      "b2": 0,
      "g2": 0,
      "trans": 0,
      "tap": 1,
      "phi": 0,
      "owner": null,
      "xcoord": null,
      "ycoord": null
    }
  ],
  "Area": [
    {
      "idx": 1,
      "u": 1,
      "name": "AREA1"
    },
    {
      "idx": 2,
      "u": 1,
      "name": "AREA2"
    }
  ],
  "GENROU": [
    {
      "idx": 1,
      "u": 1,
      "name": "GENROU_1",
      "bus": 1,
      "gen": 1,
      "coi": null,
      "Sn": 900,
      "Vn": 20,
      "fn": 60,
      "D": 0,
      "M": 13.0,
      "ra": 0,
      "xl": 0.06,
      "xd1": 0.3,
      "kp": 0,
      "kw": 0,
      "S10": 0,
      "S12": 1,
      "gammap": 1.0,
      "gammaq": 1.0,
      "xd": 1.8,
      "xq": 1.7,
      "xd2": 0.25,
      "xq1": 0.55,
      "xq2": 0.25,
      "Td10": 8,
      "Td20": 0.03,
      "Tq10": 0.4,
      "Tq20": 0.05
    },
    {
      "idx": 2,
      "u": 1,
      "name": "GENROU_2",
      "bus": 2,
      "gen": 2,
      "coi": null,
      "Sn": 900,
      "Vn": 20,
      "fn": 60,
      "D": 0,
      "M": 13.0,
      "ra": 0,
      "xl": 0.06,
      "xd1": 0.3,
      "kp": 0,
      "kw": 0,
      "S10": 0,
      "S12": 1,
      "gammap": 1.0,
      "gammaq": 1.0,
      "xd": 1.8,
      "xq": 1.7,
      "xd2": 0.25,
      "xq1": 0.55,
      "xq2": 0.25,
      "Td10": 8,
      "Td20": 0.03,
      "Tq10": 0.4,
      "Tq20": 0.05
    },
    {
      "idx": 3,
      "u": 1,
      "name": "GENROU_3",
      "bus": 3,
      "gen": 3,
      "coi": null,
      "Sn": 900,
      "Vn": 20,
      "fn": 60,
      "D": 0,
      "M": 12.35,
      "ra": 0,
      "xl": 0.06,
      "xd1": 0.3,
      "kp": 0,
      "kw": 0,
      "S10": 0,
      "S12": 1,
      "gammap": 1.0,
      "gammaq": 1.0,
      "xd": 1.8,
      "xq": 1.7,
      "xd2": 0.25,
      "xq1": 0.55,
      "xq2": 0.25,
      "Td10": 8,
      "Td20": 0.03,
      "Tq10": 0.4,
      "Tq20": 0.05
    },
    {
      "idx": 4,
      "u": 1,
      "name": "GENROU_4",
      "bus": 4,
      "gen": 4,
      "coi": null,
      "Sn": 900,
      "Vn": 20,
      "fn": 60,
      "D": 0,
      "M": 12.35,
      "ra": 0,
      "xl": 0.06,
      "xd1": 0.3,
      "kp": 0,
      "kw": 0,
      "S10": 0,
      "S12": 1,
      "gammap": 1.0,
      "gammaq": 1.0,
      "xd": 1.8,
      "xq": 1.7,
      "xd2": 0.25,
      "xq1": 0.55,
      "xq2": 0.25,
      "Td10": 8,
      "Td20": 0.03,
      "Tq10": 0.4,
      "Tq20": 0.05
    }
  ],
  "TGOV1": [
    {
      "idx": 1,
      "u": 1,
      "name": "TGOV1_1",
      "syn": 1,
      "Tn": null,
      "wref0": 1,
      "R": 0.05,
      "VMAX": 33,
      "VMIN": 0.4,
      "T1": 0.49,
      "T2": 2.1,
      "T3": 7,
      "Dt": 0
    },
    {
      "idx": 2,
      "u": 1,
      "name": "TGOV1_1",
      "syn": 2,
      "Tn": null,
      "wref0": 1,
      "R": 0.05,
      "VMAX": 33,
      "VMIN": 0.4,
      "T1": 0.49,
      "T2": 2.1,
      "T3": 7,
      "Dt": 0
    },
    {
      "idx": 3,
      "u": 1,
      "name": "TGOV1_1",
      "syn": 3,
      "Tn": null,
      "wref0": 1,
      "R": 0.05,
      "VMAX": 33,
      "VMIN": 0.4,
      "T1": 0.49,
      "T2": 2.1,
      "T3": 7,
      "Dt": 0
    },
    {
      "idx": 4,
      "u": 1,
      "name": "TGOV1_1",
      "syn": 4,
      "Tn": null,
      "wref0": 1,
      "R": 0.05,
      "VMAX": 33,
      "VMIN": 0.4,
      "T1": 0.49,
      "T2": 2.1,
      "T3": 7,
      "Dt": 0
    }
  ],
  "EXDC2": [
    {
      "idx": 1,
      "u": 1,
      "name": "EXDC2_1",
      "syn": 1,
      "TR": 0.02,
      "TA": 0.02,
      "TC": 1,
      "TB": 1,
      "TE": 0.83,
      "TF1": 1.246,
      "KF1": 0.0754,
      "KA": 20,
      "KE": 1,
      "VRMAX": 5.2,
      "VRMIN": -4.16,
      "E1": 0,
      "SE1": 0,
      "E2": 1,
      "SE2": 1
    },
    {
      "idx": 2,
      "u": 1,
      "name": "EXDC2_2",
      "syn": 2,
      "TR": 0.02,
      "TA": 0.02,
      "TC": 1,
      "TB": 1,
      "TE": 0.83,
      "TF1": 1.246,
      "KF1": 0.0754,
      "KA": 20,
      "KE": 1,
      "VRMAX": 5.2,
      "VRMIN": -4.16,
      "E1": 0,
      "SE1": 0,
      "E2": 1,
      "SE2": 1
    },
    {
      "idx": 3,
      "u": 1,
      "name": "EXDC2_3",
      "syn": 3,
      "TR": 0.02,
      "TA": 0.02,
      "TC": 1,
      "TB": 1,
      "TE": 0.83,
      "TF1": 1.246,
      "KF1": 0.0754,
      "KA": 20,
      "KE": 1,
      "VRMAX": 5.2,
      "VRMIN": -4.16,
      "E1": 0,
      "SE1": 0,
      "E2": 1,
      "SE2": 1
    },
    {
      "idx": 4,
      "u": 1,
      "name": "EXDC2_4",
      "syn": 4,
      "TR": 0.02,
      "TA": 0.02,
      "TC": 1,
      "TB": 1,
      "TE": 0.83,
      "TF1": 1.246,
      "KF1": 0.0754,
      "KA": 20,
      "KE": 1,
      "VRMAX": 5.2,
      "VRMIN": -4.16,
      "E1": 0,
      "SE1": 0,
      "E2": 1,
      "SE2": 1
    }
  ]
}